<?xml version="1.0" standalone="no"?>
<!DOCTYPE svg PUBLIC "-//W3C//DTD SVG 1.1//EN" "http://www.w3.org/Graphics/SVG/1.1/DTD/svg11.dtd" >
<svg xmlns="http://www.w3.org/2000/svg">
<metadata>Generated by IcoMoon</metadata>
<defs>
<font id="HS" horiz-adv-x="1024">
<font-face units-per-em="1024" ascent="960" descent="-64" />
<missing-glyph horiz-adv-x="1024" />
<glyph unicode="&#x20;" horiz-adv-x="512" d="" />
<glyph unicode="&#xe900;" glyph-name="AF_logo-single_dark" d="M203.089 118.484h695.193v-94.846h-695.193v94.846zM117.317 860.124l79.134-689.591c92.979-37.786 115.122 57.648 158.267 124.368 73.118 113.013 150.16 211.334 56.541 339.127 195.276-131.941-35.505-369.826-101.76-486.089h587.815c72.046 561.904-251.99 787.999-779.996 712.185zM239.838 511.144c-18.133 0-32.843 14.71-32.843 32.86 0 18.133 14.71 32.843 32.843 32.843s32.843-14.71 32.843-32.843c0-18.15-14.71-32.86-32.843-32.86z" />
<glyph unicode="&#xe901;" glyph-name="AU_logo-single_dark" d="M533.702 168.59h-42.305l-33.363 71.398h108.994l-33.327-71.398zM832.733 220.055c-124.947 29.769-241.461 55.751-184.949 165.257 171.031 333.268 45.686 511.388-135.78 511.388-184.588 0-307.501-184.934-135.706-511.388 58.33-110.248-62.512-136.487-185.132-165.257-124.659-29.764-115.136-97.621-115.136-220.749h381.241l25.223 135.232h58.84l25.693-135.232h380.953c0 123.129 9.339 190.985-115.247 220.749z" />
<glyph unicode="&#xe902;" glyph-name="HS_logo-single_dark" d="M1002.671 957.074h-978.746c-11.651 0-21.088-9.457-21.088-21.106v-978.748c0-11.651 9.438-21.088 21.088-21.088h978.746c11.649 0 21.087 9.438 21.087 21.088v978.748c0 11.649-9.438 21.106-21.087 21.106zM969.205 9.526c0-10.406-8.435-18.84-18.841-18.84h-874.132c-10.408 0-18.841 8.435-18.841 18.84v874.134c0 10.408 8.435 18.841 18.841 18.841h874.132c10.408 0 18.841-8.435 18.841-18.841v-874.134zM202.714 165.653c-3.172 2.107-7.402 3.172-12.695 4.228-5.293 1.061-9.523 3.17-12.701 6.356-3.172 3.17-6.351 6.346-9.521 10.581l-10.584 17.979v483.6c6.351 17.989 13.754 28.571 23.282 32.805 9.523 4.232 16.93 5.293 22.219 5.293 5.291 0 10.581 0 15.873 0 21.165-5.293 33.864-17.986 37.038-38.096v-196.821h514.289v199.996c3.172 3.172 5.293 7.403 7.397 12.695 2.119 5.291 4.237 9.528 9.526 12.701 4.238 3.174 9.531 5.293 13.756 7.41l30.696 3.172c21.163-4.232 33.861-16.933 38.091-38.098v-481.475c-8.463-26.454-26.457-39.154-53.967-40.218-24.335 5.293-39.154 17.989-45.497 38.103v183.067h-514.287v-185.184c-2.114-4.238-4.233-7.41-6.346-11.637-2.121-4.238-6.351-8.475-10.584-12.701-4.237-4.237-7.407-7.41-10.579-9.526l-25.405-4.228z" />
<glyph unicode="&#xe903;" glyph-name="KD_logo-single_dark" d="M511.974 935.799c-269.407 0-487.776-218.418-487.776-487.824s218.369-487.776 487.776-487.776c61.763 0 120.847 11.495 175.233 32.436l-202.784 403.324-177.921-208.413c-4.202-4.914-10.036-8.444-16.342-9.865-6.308-1.423-13.028-0.742-18.933 1.895-5.905 2.631-10.944 7.212-14.1 12.855s-4.434 12.326-3.588 18.736l67.163 508.75c1.665 12.496 11.929 23.356 24.314 25.709 6.193 1.175 12.776 0.328 18.485-2.34 5.709-2.671 10.537-7.148 13.602-12.655l128.944-216.138 290.919 329.431c-80.167 57.808-178.602 91.875-284.991 91.875v0zM839.566 809.447l-302.381-351.605 265.11-401.879c119.826 88.879 197.504 231.363 197.504 392.014 0 143.312-61.825 272.224-160.232 361.47zM368.632 621.113l-34.678-290.324 109.264 125.755-74.586 164.569z" />
<glyph unicode="&#xe904;" glyph-name="LA_logo-single_dark" d="M471.31 390.888h-0.83l-40.172-112.979h79.86l-38.858 112.979zM744.785 414.207h-63.386v-72.029h68.607c23.716 0 41.416 10.804 41.416 36.626 0.002 29.335-22.489 35.403-46.637 35.403zM755.193 295.973h-73.794v-84.544h72.496c26.741 0 50.007 8.643 50.007 40.571 0 31.456-19.844 43.973-48.709 43.973zM755.193 295.973h-73.794v-84.544h72.496c26.741 0 50.007 8.643 50.007 40.571 0 31.456-19.844 43.973-48.709 43.973zM744.785 414.207h-63.386v-72.029h68.607c23.716 0 41.416 10.804 41.416 36.626 0.002 29.335-22.489 35.403-46.637 35.403zM471.31 390.888h-0.83l-40.172-112.979h79.86l-38.858 112.979zM471.31 390.888h-0.83l-40.172-112.979h79.86l-38.858 112.979zM744.785 414.207h-63.386v-72.029h68.607c23.716 0 41.416 10.804 41.416 36.626 0.002 29.335-22.489 35.403-46.637 35.403zM755.193 295.973h-73.794v-84.544h72.496c26.741 0 50.007 8.643 50.007 40.571 0 31.456-19.844 43.973-48.709 43.973zM755.193 295.973h-73.794v-84.544h72.496c26.741 0 50.007 8.643 50.007 40.571 0 31.456-19.844 43.973-48.709 43.973zM791.424 378.806c0 29.335-22.49 35.401-46.637 35.401h-63.388v-72.029h68.607c23.716 0 41.418 10.804 41.418 36.628zM470.48 390.888l-40.172-112.979h79.86l-38.858 112.979h-0.83zM755.193 295.973h-73.794v-84.544h72.496c26.741 0 50.007 8.643 50.007 40.571 0 31.456-19.844 43.973-48.709 43.973zM791.424 378.806c0 29.335-22.49 35.401-46.637 35.401h-63.388v-72.029h68.607c23.716 0 41.418 10.804 41.418 36.628zM470.48 390.888l-40.172-112.979h79.86l-38.858 112.979h-0.83zM471.31 390.888h-0.83l-40.172-112.979h79.86l-38.858 112.979zM744.785 414.207h-63.386v-72.029h68.607c23.716 0 41.416 10.804 41.416 36.626 0.002 29.335-22.489 35.403-46.637 35.403zM755.193 295.973h-73.794v-84.544h72.496c26.741 0 50.007 8.643 50.007 40.571 0 31.456-19.844 43.973-48.709 43.973zM755.193 295.973h-73.794v-84.544h72.496c26.741 0 50.007 8.643 50.007 40.571 0 31.456-19.844 43.973-48.709 43.973zM744.785 414.207h-63.386v-72.029h68.607c23.716 0 41.416 10.804 41.416 36.626 0.002 29.335-22.489 35.403-46.637 35.403zM471.31 390.888h-0.83l-40.172-112.979h79.86l-38.858 112.979zM471.31 390.888h-0.83l-40.172-112.979h79.86l-38.858 112.979zM744.785 414.207h-63.386v-72.029h68.607c23.716 0 41.416 10.804 41.416 36.626 0.002 29.335-22.489 35.403-46.637 35.403zM755.193 295.973h-73.794v-84.544h72.496c26.741 0 50.007 8.643 50.007 40.571 0 31.456-19.844 43.973-48.709 43.973zM755.193 295.973h-73.794v-84.544h72.496c26.741 0 50.007 8.643 50.007 40.571 0 31.456-19.844 43.973-48.709 43.973zM744.785 414.207h-63.386v-72.029h68.607c23.716 0 41.416 10.804 41.416 36.626 0.002 29.335-22.489 35.403-46.637 35.403zM471.31 390.888h-0.83l-40.172-112.979h79.86l-38.858 112.979zM635.575 742.184l-9.421-9.853c165.614-10.855 287.149-46.688 287.149-89.211 0-51.148-175.656-92.582-392.384-92.582-216.693 0-392.366 41.434-392.366 92.582 0 41.226 114.206 76.16 272.041 88.139l10.89 11.305c-173.478-12.532-300.839-54.156-300.839-103.506v-569.509c0-59.272 183.677-107.359 410.291-107.359s410.291 48.087 410.291 107.359v569.509c0 48.866-124.837 90.144-295.653 103.126zM762.918 158.794h-211.818l-23.249 68.589h-115.191l-24.165-68.589h-218.283v308.064h67.708v-251.091h103.61l95.296 251.091h69.454l107.361-287.166v287.166h144.957c58.666 0 98.39-18.997 98.39-76.351 0-30.233-15.125-51.356-41.848-64.339 37.51-10.734 56.505-39.669 56.505-78.043 0.002-62.609-53.063-89.332-108.725-89.332zM463.687 567.582l64.821 151.266-131.941-23.699 207.255 241.878-62.676-147.446 131.317 19.222z" />
<glyph unicode="&#xe905;" glyph-name="SA_logo-single_dark" d="M594.819 358.208c-136.607-64.373-221.427-197.96-222.545-358.718h122.294c1.008 100.792 45.046 178.554 125.475 227.783zM552.014 566.458c-226.352-89.040-386.757-309.219-387.652-566.97h122.325c0.56 129.832 51.309 251.793 143.22 343.657 44.215 44.249 89.693 76.387 145.379 100.554zM788.356 60.923c0-45.589-36.929-82.537-82.52-82.537-45.589 0-82.535 36.948-82.535 82.537 0 45.587 36.946 82.551 82.535 82.551 45.591 0 82.52-36.964 82.52-82.551zM840.116 752.934c-8.482-67.68-70.843-397.298-91.469-505.568-3.799-20.031-21.308-34.601-41.703-34.601h-0.831c-21.101 0-39.138 15-43.065 35.717-20.878 109.961-83.146 439.834-91.529 506.462-10.048 80.235 52.541 151.19 133.428 151.19 81.942 0.003 145.358-71.912 135.17-153.201z" />
<glyph unicode="&#xe906;" glyph-name="UA_logo-single_dark" d="M517.972 584.095l40.53-117.98h-83.308l41.878 117.98zM871.463 497.637c0-71.151-39.178-96.411-80.153-96.411h-63.044v202.681h50.436c70.247 0 92.762-41.427 92.762-106.27zM27.138 728.734v-479.216h152.293v-168.099l311.566 168.099h508.802v479.216h-972.662zM796.26 341.787h-194.982l-24.317 71.642h-120.23l-25.218-71.64h-71.599l16.796 44.308c-22.288-34.855-62.952-51.966-117.665-51.966-86.459 0-136.892 41.878-136.892 129.283v199.936h70.696v-199.936c0-35.124 9.006-69.841 66.195-69.841 50.436 0 66.645 22.108 66.645 69.841v199.936h70.698v-199.936c0-11.842-0.946-22.874-2.837-33.050l88.395 232.986h72.498l103.121-275.811v275.811h138.693c83.306 0 145.946-52.235 145.946-158.957 0.002-93.216-47.777-162.606-145.944-162.606z" />
</font></defs></svg>